NoC_Project2.sim/sim_1/behav/xsim/simulate.log
Time resolution is 1 ps

Don't have any packet to be sent back
At 66000 - [PACKET SEND]: OP: + 	ID = 0 	DATA_A = 11955 	DATA_B = 10471 	EXP = 22426

Don't have any packet to be sent back
At 76000 - [PACKET SEND]: OP: + 	ID = 1 	DATA_A = 17857 	DATA_B =  3747 	EXP = 21604

Don't have any packet to be sent back
At 86000 - [PACKET SEND]: OP: + 	ID = 2 	DATA_A = 19981 	DATA_B = 15821 	EXP = 35802

Don't have any packet to be sent back
At 96000 - [PACKET SEND]: OP: >> 1 	ID = 3 	DATA = 1136475701 	EXP =  568237850

Don't have any packet to be sent back
At 106000 - [PACKET SEND]: OP: >> 1 	ID = 4 	DATA = 1280574233 	EXP =  640287116

At 116000 - [PACKET RECEIVE]: ID = 0, RESULT = 22426 vs EXPECT =      22426 --> PASS
At 116000 - [PACKET SEND]: OP: XXX 	ID = 0 	DATA = 1190017723 	EXP = 1190017723

At 126000 - [PACKET RECEIVE]: ID = 0, RESULT = 1190017723 vs EXPECT = 1190017723 --> PASS
At 126000 - [PACKET SEND]: OP: + 	ID = 0 	DATA_A = 18849 	DATA_B =  1897 	EXP = 20746

At 136000 - [PACKET RECEIVE]: ID = 0, RESULT = 35802 vs EXPECT =      35802 --> PASS
Not ready to send packet

At 146000 - [PACKET RECEIVE]: ID = 1, RESULT = 568237850 vs EXPECT =  568237850 --> PASS
At 146000 - [PACKET SEND]: OP: >> 1 	ID = 2 	DATA =  444799374 	EXP =  222399687

At 156000 - [PACKET RECEIVE]: ID = 0, RESULT = 640287116 vs EXPECT =  640287116 --> PASS
At 156000 - [PACKET SEND]: OP: - 	ID = 3 	DATA_A = 14103 	DATA_B =  8960 	EXP =  5143

At 166000 - [PACKET RECEIVE]: ID = 1, RESULT = 21604 vs EXPECT =      21604 --> PASS
At 166000 - [PACKET SEND]: OP: - 	ID = 1 	DATA_A = 12741 	DATA_B =  9606 	EXP =  3135

At 176000 - [PACKET RECEIVE]: ID = 0, RESULT = 20746 vs EXPECT =      20746 --> PASS
At 176000 - [PACKET SEND]: OP: + 	ID = 0 	DATA_A = 19025 	DATA_B =  7535 	EXP = 26560

Don't have any packet to be sent back
At 186000 - [PACKET SEND]: OP: XXX 	ID = 4 	DATA =  846139625 	EXP =  846139625

At 196000 - [PACKET RECEIVE]: ID = 0, RESULT = 846139625 vs EXPECT =  846139625 --> PASS
At 196000 - [PACKET SEND]: OP: + 	ID = 4 	DATA_A = 17461 	DATA_B =  8052 	EXP = 25513

Don't have any packet to be sent back
At 206000 - [PACKET SEND]: OP: >> 1 	ID = 5 	DATA = 1188308542 	EXP =  594154271

At 216000 - [PACKET RECEIVE]: ID = 0, RESULT = 222399687 vs EXPECT =  222399687 --> PASS
Not ready to send packet

At 226000 - [PACKET RECEIVE]: ID = 1, RESULT = 5143 vs EXPECT =       5143 --> PASS
At 226000 - [PACKET SEND]: OP: + 	ID = 2 	DATA_A = 14745 	DATA_B =   249 	EXP = 14994

At 236000 - [PACKET RECEIVE]: ID = 1, RESULT = 3135 vs EXPECT =       3135 --> PASS
At 236000 - [PACKET SEND]: OP: XXX 	ID = 1 	DATA = 1139160970 	EXP = 1139160970

At 246000 - [PACKET RECEIVE]: ID = 1, RESULT = 1139160970 vs EXPECT = 1139160970 --> PASS
At 246000 - [PACKET SEND]: OP: XXX 	ID = 1 	DATA =  773269599 	EXP =  773269599

At 256000 - [PACKET RECEIVE]: ID = 1, RESULT = 773269599 vs EXPECT =  773269599 --> PASS
At 256000 - [PACKET SEND]: OP: - 	ID = 1 	DATA_A = 18050 	DATA_B =  5020 	EXP = 13030

At 266000 - [PACKET RECEIVE]: ID = 0, RESULT = 25513 vs EXPECT =      25513 --> PASS
At 266000 - [PACKET SEND]: OP: >> 1 	ID = 3 	DATA = 1036005995 	EXP =  518002997

At 276000 - [PACKET RECEIVE]: ID = 1, RESULT = 594154271 vs EXPECT =  594154271 --> PASS
At 276000 - [PACKET SEND]: OP: XXX 	ID = 4 	DATA =  718280832 	EXP =  718280832

At 286000 - [PACKET RECEIVE]: ID = 0, RESULT = 718280832 vs EXPECT =  718280832 --> PASS
At 286000 - [PACKET SEND]: OP: XXX 	ID = 4 	DATA =  801517492 	EXP =  801517492

At 296000 - [PACKET RECEIVE]: ID = 0, RESULT = 801517492 vs EXPECT =  801517492 --> PASS
At 296000 - [PACKET SEND]: OP: >> 1 	ID = 4 	DATA = 1249261848 	EXP =  624630924

At 306000 - [PACKET RECEIVE]: ID = 0, RESULT = 26560 vs EXPECT =      26560 --> PASS
Not ready to send packet

At 316000 - [PACKET RECEIVE]: ID = 1, RESULT = 518002997 vs EXPECT =  518002997 --> PASS
At 316000 - [PACKET SEND]: OP: - 	ID = 0 	DATA_A =  5731 	DATA_B =  3624 	EXP =  2107

At 326000 - [PACKET RECEIVE]: ID = 1, RESULT = 13030 vs EXPECT =      13030 --> PASS
At 326000 - [PACKET SEND]: OP: >> 1 	ID = 1 	DATA = 1210456711 	EXP =  605228355

At 336000 - [PACKET RECEIVE]: ID = 0, RESULT = 14994 vs EXPECT =      14994 --> PASS
At 336000 - [PACKET SEND]: OP: - 	ID = 2 	DATA_A =  4542 	DATA_B =  3635 	EXP =   907

At 346000 - [PACKET RECEIVE]: ID = 0, RESULT = 624630924 vs EXPECT =  624630924 --> PASS
At 346000 - [PACKET SEND]: OP: XXX 	ID = 3 	DATA =  358683725 	EXP =  358683725

At 356000 - [PACKET RECEIVE]: ID = 1, RESULT = 358683725 vs EXPECT =  358683725 --> PASS
At 356000 - [PACKET SEND]: OP: + 	ID = 3 	DATA_A = 18803 	DATA_B = 16930 	EXP = 35733

Don't have any packet to be sent back
At 366000 - [PACKET SEND]: OP: XXX 	ID = 4 	DATA = 1057891738 	EXP = 1057891738

At 376000 - [PACKET RECEIVE]: ID = 0, RESULT = 1057891738 vs EXPECT = 1057891738 --> PASS
At 376000 - [PACKET SEND]: OP: - 	ID = 4 	DATA_A =  7919 	DATA_B =  3226 	EXP =  4693

At 386000 - [PACKET RECEIVE]: ID = 0, RESULT = 2107 vs EXPECT =       2107 --> PASS
At 386000 - [PACKET SEND]: OP: XXX 	ID = 0 	DATA =  746653399 	EXP =  746653399

At 396000 - [PACKET RECEIVE]: ID = 0, RESULT = 746653399 vs EXPECT =  746653399 --> PASS
Not ready to send packet

At 406000 - [PACKET RECEIVE]: ID = 0, RESULT = 907 vs EXPECT =        907 --> PASS
At 406000 - [PACKET SEND]: OP: - 	ID = 0 	DATA_A =  2379 	DATA_B =  1548 	EXP =   831

At 416000 - [PACKET RECEIVE]: ID = 1, RESULT = 605228355 vs EXPECT =  605228355 --> PASS
At 416000 - [PACKET SEND]: OP: - 	ID = 1 	DATA_A = 18287 	DATA_B = 15872 	EXP =  2415

At 426000 - [PACKET RECEIVE]: ID = 1, RESULT = 35733 vs EXPECT =      35733 --> PASS
At 426000 - [PACKET SEND]: OP: XXX 	ID = 2 	DATA = 1017653385 	EXP = 1017653385

At 436000 - [PACKET RECEIVE]: ID = 0, RESULT = 1017653385 vs EXPECT = 1017653385 --> PASS
At 436000 - [PACKET SEND]: OP: + 	ID = 2 	DATA_A = 16739 	DATA_B = 14833 	EXP = 31572

At 446000 - [PACKET RECEIVE]: ID = 0, RESULT = 4693 vs EXPECT =       4693 --> PASS
At 446000 - [PACKET SEND]: OP: XXX 	ID = 3 	DATA =   52756509 	EXP =   52756509

At 456000 - [PACKET RECEIVE]: ID = 1, RESULT = 52756509 vs EXPECT =   52756509 --> PASS
At 456000 - [PACKET SEND]: OP: - 	ID = 3 	DATA_A = 10323 	DATA_B =  4786 	EXP =  5537

Don't have any packet to be sent back
At 466000 - [PACKET SEND]: OP: >> 1 	ID = 4 	DATA =  725494023 	EXP =  362747011

At 476000 - [PACKET RECEIVE]: ID = 0, RESULT = 831 vs EXPECT =        831 --> PASS
Not ready to send packet

At 486000 - [PACKET RECEIVE]: ID = 1, RESULT = 2415 vs EXPECT =       2415 --> PASS
At 486000 - [PACKET SEND]: OP: >> 1 	ID = 0 	DATA = 1085867581 	EXP =  542933790

Don't have any packet to be sent back
At 496000 - [PACKET SEND]: OP: XXX 	ID = 1 	DATA = 1189299185 	EXP = 1189299185

At 506000 - [PACKET RECEIVE]: ID = 1, RESULT = 1189299185 vs EXPECT = 1189299185 --> PASS
At 506000 - [PACKET SEND]: OP: XXX 	ID = 1 	DATA =  454758265 	EXP =  454758265

At 516000 - [PACKET RECEIVE]: ID = 1, RESULT = 454758265 vs EXPECT =  454758265 --> PASS
Not ready to send packet

At 526000 - [PACKET RECEIVE]: ID = 1, RESULT = 5537 vs EXPECT =       5537 --> PASS
Not ready to send packet

At 536000 - [PACKET RECEIVE]: ID = 0, RESULT = 542933790 vs EXPECT =  542933790 --> PASS
At 536000 - [PACKET SEND]: OP: + 	ID = 0 	DATA_A = 19274 	DATA_B = 18008 	EXP = 37282

At 546000 - [PACKET RECEIVE]: ID = 0, RESULT = 31572 vs EXPECT =      31572 --> PASS
At 546000 - [PACKET SEND]: OP: + 	ID = 1 	DATA_A =  6181 	DATA_B =  5245 	EXP = 11426

At 556000 - [PACKET RECEIVE]: ID = 0, RESULT = 362747011 vs EXPECT =  362747011 --> PASS
At 556000 - [PACKET SEND]: OP: XXX 	ID = 2 	DATA =  773198479 	EXP =  773198479

At 566000 - [PACKET RECEIVE]: ID = 0, RESULT = 773198479 vs EXPECT =  773198479 --> PASS
At 566000 - [PACKET SEND]: OP: - 	ID = 2 	DATA_A = 10232 	DATA_B =  6707 	EXP =  3525

Don't have any packet to be sent back
At 576000 - [PACKET SEND]: OP: >> 1 	ID = 3 	DATA =  717039361 	EXP =  358519680

At 586000 - [PACKET RECEIVE]: ID = 0, RESULT = 37282 vs EXPECT =      37282 --> PASS
At 586000 - [PACKET SEND]: OP: >> 1 	ID = 0 	DATA = 1047999749 	EXP =  523999874

At 596000 - [PACKET RECEIVE]: ID = 1, RESULT = 11426 vs EXPECT =      11426 --> PASS
At 596000 - [PACKET SEND]: OP: >> 1 	ID = 1 	DATA = 1208043058 	EXP =  604021529

Don't have any packet to be sent back
At 606000 - [PACKET SEND]: OP: + 	ID = 4 	DATA_A = 17494 	DATA_B = 16062 	EXP = 33556

Don't have any packet to be sent back
At 616000 - [PACKET SEND]: OP: XXX 	ID = 5 	DATA = 1128743558 	EXP = 1128743558

At 626000 - [PACKET RECEIVE]: ID = 1, RESULT = 1128743558 vs EXPECT = 1128743558 --> PASS
At 626000 - [PACKET SEND]: OP: + 	ID = 5 	DATA_A = 12807 	DATA_B = 11963 	EXP = 24770

At 636000 - [PACKET RECEIVE]: ID = 0, RESULT = 3525 vs EXPECT =       3525 --> PASS
Not ready to send packet

At 646000 - [PACKET RECEIVE]: ID = 1, RESULT = 604021529 vs EXPECT =  604021529 --> PASS
Not ready to send packet

At 656000 - [PACKET RECEIVE]: ID = 0, RESULT = 523999874 vs EXPECT =  523999874 --> PASS
At 656000 - [PACKET SEND]: OP: XXX 	ID = 0 	DATA =   54198795 	EXP =   54198795

At 666000 - [PACKET RECEIVE]: ID = 0, RESULT = 54198795 vs EXPECT =   54198795 --> PASS
At 666000 - [PACKET SEND]: OP: - 	ID = 0 	DATA_A = 16769 	DATA_B = 13815 	EXP =  2954

At 676000 - [PACKET RECEIVE]: ID = 0, RESULT = 33556 vs EXPECT =      33556 --> PASS
At 676000 - [PACKET SEND]: OP: XXX 	ID = 1 	DATA =  582886022 	EXP =  582886022

At 686000 - [PACKET RECEIVE]: ID = 1, RESULT = 582886022 vs EXPECT =  582886022 --> PASS
At 686000 - [PACKET SEND]: OP: XXX 	ID = 1 	DATA =  756623501 	EXP =  756623501

At 696000 - [PACKET RECEIVE]: ID = 1, RESULT = 756623501 vs EXPECT =  756623501 --> PASS
At 696000 - [PACKET SEND]: OP: XXX 	ID = 1 	DATA =  372509363 	EXP =  372509363

At 706000 - [PACKET RECEIVE]: ID = 1, RESULT = 372509363 vs EXPECT =  372509363 --> PASS
At 706000 - [PACKET SEND]: OP: XXX 	ID = 1 	DATA = 1004288399 	EXP = 1004288399

At 716000 - [PACKET RECEIVE]: ID = 1, RESULT = 1004288399 vs EXPECT = 1004288399 --> PASS
At 716000 - [PACKET SEND]: OP: XXX 	ID = 1 	DATA = 1305954045 	EXP = 1305954045

At 726000 - [PACKET RECEIVE]: ID = 1, RESULT = 1305954045 vs EXPECT = 1305954045 --> PASS
Not ready to send packet

At 736000 - [PACKET RECEIVE]: ID = 0, RESULT = 2954 vs EXPECT =       2954 --> PASS
At 736000 - [PACKET SEND]: OP: + 	ID = 0 	DATA_A =  9351 	DATA_B =  1231 	EXP = 10582

At 746000 - [PACKET RECEIVE]: ID = 1, RESULT = 358519680 vs EXPECT =  358519680 --> PASS
At 746000 - [PACKET SEND]: OP: XXX 	ID = 1 	DATA = 1230587572 	EXP = 1230587572

At 756000 - [PACKET RECEIVE]: ID = 1, RESULT = 1230587572 vs EXPECT = 1230587572 --> PASS
At 756000 - [PACKET SEND]: OP: >> 1 	ID = 1 	DATA =  225771959 	EXP =  112885979

Don't have any packet to be sent back
At 766000 - [PACKET SEND]: OP: XXX 	ID = 2 	DATA =  193266773 	EXP =  193266773

At 776000 - [PACKET RECEIVE]: ID = 0, RESULT = 193266773 vs EXPECT =  193266773 --> PASS
At 776000 - [PACKET SEND]: OP: >> 1 	ID = 2 	DATA =  677448966 	EXP =  338724483

At 786000 - [PACKET RECEIVE]: ID = 0, RESULT = 10582 vs EXPECT =      10582 --> PASS
At 786000 - [PACKET SEND]: OP: - 	ID = 0 	DATA_A = 12833 	DATA_B =  4569 	EXP =  8264

At 796000 - [PACKET RECEIVE]: ID = 1, RESULT = 24770 vs EXPECT =      24770 --> PASS
At 796000 - [PACKET SEND]: OP: + 	ID = 3 	DATA_A = 18457 	DATA_B =  9744 	EXP = 28201

At 806000 - [PACKET RECEIVE]: ID = 1, RESULT = 112885979 vs EXPECT =  112885979 --> PASS
At 806000 - [PACKET SEND]: OP: + 	ID = 1 	DATA_A =  8651 	DATA_B =   194 	EXP =  8845

Don't have any packet to be sent back
At 816000 - [PACKET SEND]: OP: - 	ID = 4 	DATA_A = 16609 	DATA_B =  5479 	EXP = 11130

At 826000 - [PACKET RECEIVE]: ID = 0, RESULT = 338724483 vs EXPECT =  338724483 --> PASS
At 826000 - [PACKET SEND]: OP: + 	ID = 2 	DATA_A = 12509 	DATA_B =  4292 	EXP = 16801

Don't have any packet to be sent back
At 836000 - [PACKET SEND]: OP: >> 1 	ID = 5 	DATA = 1159010566 	EXP =  579505283

At 846000 - [PACKET RECEIVE]: ID = 1, RESULT = 28201 vs EXPECT =      28201 --> PASS
Not ready to send packet

At 856000 - [PACKET RECEIVE]: ID = 0, RESULT = 8264 vs EXPECT =       8264 --> PASS
At 856000 - [PACKET SEND]: OP: - 	ID = 0 	DATA_A = 15157 	DATA_B =  9374 	EXP =  5783

Don't have any packet to be sent back
At 866000 - [PACKET SEND]: OP: XXX 	ID = 3 	DATA =  487852140 	EXP =  487852140

At 876000 - [PACKET RECEIVE]: ID = 1, RESULT = 487852140 vs EXPECT =  487852140 --> PASS
At 876000 - [PACKET SEND]: OP: + 	ID = 3 	DATA_A =  6291 	DATA_B =  3177 	EXP =  9468

At 886000 - [PACKET RECEIVE]: ID = 0, RESULT = 11130 vs EXPECT =      11130 --> PASS
At 886000 - [PACKET SEND]: OP: XXX 	ID = 4 	DATA = 1209221844 	EXP = 1209221844

At 896000 - [PACKET RECEIVE]: ID = 0, RESULT = 1209221844 vs EXPECT = 1209221844 --> PASS
At 896000 - [PACKET SEND]: OP: >> 1 	ID = 4 	DATA = 1271531002 	EXP =  635765501

At 906000 - [PACKET RECEIVE]: ID = 1, RESULT = 579505283 vs EXPECT =  579505283 --> PASS
At 906000 - [PACKET SEND]: OP: + 	ID = 5 	DATA_A = 10247 	DATA_B =  3630 	EXP = 13877

At 916000 - [PACKET RECEIVE]: ID = 1, RESULT = 8845 vs EXPECT =       8845 --> PASS
Not ready to send packet

At 926000 - [PACKET RECEIVE]: ID = 0, RESULT = 5783 vs EXPECT =       5783 --> PASS
At 926000 - [PACKET SEND]: OP: XXX 	ID = 0 	DATA =  957488301 	EXP =  957488301

At 936000 - [PACKET RECEIVE]: ID = 0, RESULT = 957488301 vs EXPECT =  957488301 --> PASS
Not ready to send packet

At 946000 - [PACKET RECEIVE]: ID = 0, RESULT = 635765501 vs EXPECT =  635765501 --> PASS
At 946000 - [PACKET SEND]: OP: + 	ID = 0 	DATA_A =  7977 	DATA_B =  4011 	EXP = 11988

At 956000 - [PACKET RECEIVE]: ID = 0, RESULT = 16801 vs EXPECT =      16801 --> PASS
At 956000 - [PACKET SEND]: OP: + 	ID = 1 	DATA_A = 14794 	DATA_B =  5079 	EXP = 19873

At 966000 - [PACKET RECEIVE]: ID = 1, RESULT = 9468 vs EXPECT =       9468 --> PASS
At 966000 - [PACKET SEND]: OP: >> 1 	ID = 2 	DATA = 1297042449 	EXP =  648521224

At 976000 - [PACKET RECEIVE]: ID = 1, RESULT = 13877 vs EXPECT =      13877 --> PASS
At 976000 - [PACKET SEND]: OP: - 	ID = 3 	DATA_A =  1435 	DATA_B =   636 	EXP =   799

Don't have any packet to be sent back
At 986000 - [PACKET SEND]: OP: XXX 	ID = 4 	DATA =  256967234 	EXP =  256967234

At 996000 - [PACKET RECEIVE]: ID = 0, RESULT = 256967234 vs EXPECT =  256967234 --> PASS
At 996000 - [PACKET SEND]: OP: + 	ID = 4 	DATA_A = 13860 	DATA_B =  3866 	EXP = 17726

At 1006000 - [PACKET RECEIVE]: ID = 1, RESULT = 19873 vs EXPECT =      19873 --> PASS
Not ready to send packet

At 1016000 - [PACKET RECEIVE]: ID = 0, RESULT = 648521224 vs EXPECT =  648521224 --> PASS
At 1016000 - [PACKET SEND]: OP: >> 1 	ID = 1 	DATA = 1247615098 	EXP =  623807549

Don't have any packet to be sent back
At 1026000 - [PACKET SEND]: OP: + 	ID = 2 	DATA_A =  5334 	DATA_B =  5101 	EXP = 10435

At 1036000 - [PACKET RECEIVE]: ID = 0, RESULT = 11988 vs EXPECT =      11988 --> PASS
Not ready to send packet

At 1046000 - [PACKET RECEIVE]: ID = 1, RESULT = 799 vs EXPECT =        799 --> PASS
At 1046000 - [PACKET SEND]: OP: >> 1 	ID = 0 	DATA =  740894047 	EXP =  370447023

Don't have any packet to be sent back
Not ready to send packet

At 1066000 - [PACKET RECEIVE]: ID = 1, RESULT = 623807549 vs EXPECT =  623807549 --> PASS
At 1066000 - [PACKET SEND]: OP: + 	ID = 1 	DATA_A = 13978 	DATA_B =  2726 	EXP = 16704

At 1076000 - [PACKET RECEIVE]: ID = 0, RESULT = 10435 vs EXPECT =      10435 --> PASS
At 1076000 - [PACKET SEND]: OP: XXX 	ID = 2 	DATA = 1166354883 	EXP = 1166354883

At 1086000 - [PACKET RECEIVE]: ID = 0, RESULT = 1166354883 vs EXPECT = 1166354883 --> PASS
At 1086000 - [PACKET SEND]: OP: XXX 	ID = 2 	DATA =  986789637 	EXP =  986789637

At 1096000 - [PACKET RECEIVE]: ID = 0, RESULT = 986789637 vs EXPECT =  986789637 --> PASS
At 1096000 - [PACKET SEND]: OP: + 	ID = 2 	DATA_A =  9070 	DATA_B =  7966 	EXP = 17036

At 1106000 - [PACKET RECEIVE]: ID = 0, RESULT = 17726 vs EXPECT =      17726 --> PASS
At 1106000 - [PACKET SEND]: OP: - 	ID = 3 	DATA_A =  3806 	DATA_B =  3528 	EXP =   278

At 1116000 - [PACKET RECEIVE]: ID = 0, RESULT = 370447023 vs EXPECT =  370447023 --> PASS
At 1116000 - [PACKET SEND]: OP: XXX 	ID = 0 	DATA = 1149829891 	EXP = 1149829891

At 1126000 - [PACKET RECEIVE]: ID = 0, RESULT = 1149829891 vs EXPECT = 1149829891 --> PASS
At 1126000 - [PACKET SEND]: OP: >> 1 	ID = 0 	DATA = 1278167923 	EXP =  639083961

At 1136000 - [PACKET RECEIVE]: ID = 1, RESULT = 16704 vs EXPECT =      16704 --> PASS
At 1136000 - [PACKET SEND]: OP: XXX 	ID = 1 	DATA =  531570173 	EXP =  531570173

At 1146000 - [PACKET RECEIVE]: ID = 1, RESULT = 531570173 vs EXPECT =  531570173 --> PASS
At 1146000 - [PACKET SEND]: OP: >> 1 	ID = 1 	DATA =  724507610 	EXP =  362253805

Don't have any packet to be sent back
At 1156000 - [PACKET SEND]: OP: >> 1 	ID = 4 	DATA =  399250944 	EXP =  199625472

At 1166000 - [PACKET RECEIVE]: ID = 0, RESULT = 17036 vs EXPECT =      17036 --> PASS
At 1166000 - [PACKET SEND]: OP: >> 1 	ID = 2 	DATA =  615391437 	EXP =  307695718

At 1176000 - [PACKET RECEIVE]: ID = 1, RESULT = 278 vs EXPECT =        278 --> PASS
At 1176000 - [PACKET SEND]: OP: - 	ID = 3 	DATA_A = 11024 	DATA_B =    10 	EXP = 11014

At 1186000 - [PACKET RECEIVE]: ID = 0, RESULT = 639083961 vs EXPECT =  639083961 --> PASS
At 1186000 - [PACKET SEND]: OP: >> 1 	ID = 0 	DATA =  578292379 	EXP =  289146189

Don't have any packet to be sent back
At 1196000 - [PACKET SEND]: OP: - 	ID = 5 	DATA_A =  1830 	DATA_B =   875 	EXP =   955

At 1206000 - [PACKET RECEIVE]: ID = 0, RESULT = 199625472 vs EXPECT =  199625472 --> PASS
At 1206000 - [PACKET SEND]: OP: + 	ID = 4 	DATA_A = 14136 	DATA_B =  5290 	EXP = 19426

Don't have any packet to be sent back
At 1216000 - [PACKET SEND]: OP: + 	ID = 6 	DATA_A = 19048 	DATA_B = 17382 	EXP = 36430

At 1226000 - [PACKET RECEIVE]: ID = 0, RESULT = 307695718 vs EXPECT =  307695718 --> PASS
At 1226000 - [PACKET SEND]: OP: >> 1 	ID = 2 	DATA =  518067752 	EXP =  259033876

Don't have any packet to be sent back
Cannot create packet because all ID had been taken

At 1246000 - [PACKET RECEIVE]: ID = 1, RESULT = 11014 vs EXPECT =      11014 --> PASS
Not ready to send packet

At 1256000 - [PACKET RECEIVE]: ID = 0, RESULT = 19426 vs EXPECT =      19426 --> PASS
Not ready to send packet

At 1266000 - [PACKET RECEIVE]: ID = 1, RESULT = 955 vs EXPECT =        955 --> PASS
At 1266000 - [PACKET SEND]: OP: + 	ID = 3 	DATA_A = 17659 	DATA_B = 13803 	EXP = 31462

Don't have any packet to be sent back
Not ready to send packet

At 1286000 - [PACKET RECEIVE]: ID = 0, RESULT = 289146189 vs EXPECT =  289146189 --> PASS
At 1286000 - [PACKET SEND]: OP: + 	ID = 0 	DATA_A = 16464 	DATA_B = 15396 	EXP = 31860

At 1296000 - [PACKET RECEIVE]: ID = 0, RESULT = 259033876 vs EXPECT =  259033876 --> PASS
At 1296000 - [PACKET SEND]: OP: XXX 	ID = 2 	DATA = 1290882118 	EXP = 1290882118

At 1306000 - [PACKET RECEIVE]: ID = 0, RESULT = 1290882118 vs EXPECT = 1290882118 --> PASS
Not ready to send packet

At 1316000 - [PACKET RECEIVE]: ID = 1, RESULT = 362253805 vs EXPECT =  362253805 --> PASS
At 1316000 - [PACKET SEND]: OP: XXX 	ID = 1 	DATA =  974338428 	EXP =  974338428

At 1326000 - [PACKET RECEIVE]: ID = 1, RESULT = 974338428 vs EXPECT =  974338428 --> PASS
At 1326000 - [PACKET SEND]: OP: XXX 	ID = 1 	DATA = 1293566092 	EXP = 1293566092

At 1336000 - [PACKET RECEIVE]: ID = 1, RESULT = 1293566092 vs EXPECT = 1293566092 --> PASS
At 1336000 - [PACKET SEND]: OP: XXX 	ID = 1 	DATA =  336461874 	EXP =  336461874

At 1346000 - [PACKET RECEIVE]: ID = 1, RESULT = 336461874 vs EXPECT =  336461874 --> PASS
At 1346000 - [PACKET SEND]: OP: >> 1 	ID = 1 	DATA =  424285270 	EXP =  212142635

At 1356000 - [PACKET RECEIVE]: ID = 0, RESULT = 31860 vs EXPECT =      31860 --> PASS
At 1356000 - [PACKET SEND]: OP: XXX 	ID = 0 	DATA =  210174867 	EXP =  210174867

At 1366000 - [PACKET RECEIVE]: ID = 0, RESULT = 210174867 vs EXPECT =  210174867 --> PASS
At 1366000 - [PACKET SEND]: OP: - 	ID = 0 	DATA_A =  9917 	DATA_B =  7649 	EXP =  2268

At 1376000 - [PACKET RECEIVE]: ID = 1, RESULT = 31462 vs EXPECT =      31462 --> PASS
At 1376000 - [PACKET SEND]: OP: + 	ID = 2 	DATA_A =  8140 	DATA_B =  6808 	EXP = 14948

At 1386000 - [PACKET RECEIVE]: ID = 0, RESULT = 36430 vs EXPECT =      36430 --> PASS
At 1386000 - [PACKET SEND]: OP: + 	ID = 3 	DATA_A =  1645 	DATA_B =   524 	EXP =  2169

At 1396000 - [PACKET RECEIVE]: ID = 1, RESULT = 212142635 vs EXPECT =  212142635 --> PASS
At 1396000 - [PACKET SEND]: OP: XXX 	ID = 1 	DATA =  902501777 	EXP =  902501777

At 1406000 - [PACKET RECEIVE]: ID = 1, RESULT = 902501777 vs EXPECT =  902501777 --> PASS
At 1406000 - [PACKET SEND]: OP: >> 1 	ID = 1 	DATA =  602211178 	EXP =  301105589

Don't have any packet to be sent back
At 1416000 - [PACKET SEND]: OP: + 	ID = 4 	DATA_A = 16903 	DATA_B =  9354 	EXP = 26257

At 1426000 - [PACKET RECEIVE]: ID = 0, RESULT = 14948 vs EXPECT =      14948 --> PASS
Not ready to send packet

At 1436000 - [PACKET RECEIVE]: ID = 0, RESULT = 2268 vs EXPECT =       2268 --> PASS
At 1436000 - [PACKET SEND]: OP: - 	ID = 0 	DATA_A =  7597 	DATA_B =  1616 	EXP =  5981

Don't have any packet to be sent back
Not ready to send packet

At 1456000 - [PACKET RECEIVE]: ID = 1, RESULT = 301105589 vs EXPECT =  301105589 --> PASS
At 1456000 - [PACKET SEND]: OP: XXX 	ID = 1 	DATA = 1020142905 	EXP = 1020142905

At 1466000 - [PACKET RECEIVE]: ID = 1, RESULT = 1020142905 vs EXPECT = 1020142905 --> PASS
At 1466000 - [PACKET SEND]: OP: + 	ID = 1 	DATA_A = 13311 	DATA_B =  8549 	EXP = 21860

At 1476000 - [PACKET RECEIVE]: ID = 1, RESULT = 2169 vs EXPECT =       2169 --> PASS
At 1476000 - [PACKET SEND]: OP: + 	ID = 2 	DATA_A =  7246 	DATA_B =  1256 	EXP =  8502

At 1486000 - [PACKET RECEIVE]: ID = 0, RESULT = 26257 vs EXPECT =      26257 --> PASS
At 1486000 - [PACKET SEND]: OP: + 	ID = 3 	DATA_A =  3118 	DATA_B =  1523 	EXP =  4641

Don't have any packet to be sent back
At 1496000 - [PACKET SEND]: OP: >> 1 	ID = 4 	DATA = 1205353128 	EXP =  602676564

At 1506000 - [PACKET RECEIVE]: ID = 0, RESULT = 5981 vs EXPECT =       5981 --> PASS
At 1506000 - [PACKET SEND]: OP: + 	ID = 0 	DATA_A = 18849 	DATA_B = 15468 	EXP = 34317

At 1516000 - [PACKET RECEIVE]: ID = 1, RESULT = 21860 vs EXPECT =      21860 --> PASS
At 1516000 - [PACKET SEND]: OP: + 	ID = 1 	DATA_A =  4598 	DATA_B =   483 	EXP =  5081

At 1526000 - [PACKET RECEIVE]: ID = 0, RESULT = 8502 vs EXPECT =       8502 --> PASS
At 1526000 - [PACKET SEND]: OP: >> 1 	ID = 2 	DATA =   33096175 	EXP =   16548087

At 1536000 - [PACKET RECEIVE]: ID = 1, RESULT = 4641 vs EXPECT =       4641 --> PASS
At 1536000 - [PACKET SEND]: OP: XXX 	ID = 3 	DATA =  681971260 	EXP =  681971260

At 1546000 - [PACKET RECEIVE]: ID = 1, RESULT = 681971260 vs EXPECT =  681971260 --> PASS
At 1546000 - [PACKET SEND]: OP: + 	ID = 3 	DATA_A =  3932 	DATA_B =    33 	EXP =  3965

At 1556000 - [PACKET RECEIVE]: ID = 0, RESULT = 34317 vs EXPECT =      34317 --> PASS
At 1556000 - [PACKET SEND]: OP: >> 1 	ID = 0 	DATA =   29032501 	EXP =   14516250

At 1566000 - [PACKET RECEIVE]: ID = 0, RESULT = 602676564 vs EXPECT =  602676564 --> PASS
At 1566000 - [PACKET SEND]: OP: XXX 	ID = 4 	DATA = 1304445482 	EXP = 1304445482

At 1576000 - [PACKET RECEIVE]: ID = 0, RESULT = 1304445482 vs EXPECT = 1304445482 --> PASS
At 1576000 - [PACKET SEND]: OP: + 	ID = 4 	DATA_A =  7134 	DATA_B =  6305 	EXP = 13439

At 1586000 - [PACKET RECEIVE]: ID = 1, RESULT = 5081 vs EXPECT =       5081 --> PASS
At 1586000 - [PACKET SEND]: OP: - 	ID = 1 	DATA_A = 15758 	DATA_B =   689 	EXP = 15069

At 1596000 - [PACKET RECEIVE]: ID = 0, RESULT = 16548087 vs EXPECT =   16548087 --> PASS
At 1596000 - [PACKET SEND]: OP: + 	ID = 2 	DATA_A = 19387 	DATA_B =  6315 	EXP = 25702

At 1606000 - [PACKET RECEIVE]: ID = 0, RESULT = 14516250 vs EXPECT =   14516250 --> PASS
At 1606000 - [PACKET SEND]: OP: XXX 	ID = 0 	DATA = 1112685674 	EXP = 1112685674

At 1616000 - [PACKET RECEIVE]: ID = 0, RESULT = 1112685674 vs EXPECT = 1112685674 --> PASS
At 1616000 - [PACKET SEND]: OP: >> 1 	ID = 0 	DATA =  997003150 	EXP =  498501575

At 1626000 - [PACKET RECEIVE]: ID = 0, RESULT = 13439 vs EXPECT =      13439 --> PASS
At 1626000 - [PACKET SEND]: OP: + 	ID = 4 	DATA_A = 13178 	DATA_B =  9975 	EXP = 23153

At 1636000 - [PACKET RECEIVE]: ID = 1, RESULT = 3965 vs EXPECT =       3965 --> PASS
